%!PS

%dragon curve 

1 setlinejoin
1 setlinecap

/F 
{
	0 eq {10 0 rlineto} if
}def

/+ {45 rotate} def
/- {-45 rotate} def

/X
{
	dup 0 ne
	{1 sub 4 {dup} repeat - F X + + F Y -} if pop
}def

/Y
{
	dup 0 ne
	{1 sub 4 {dup} repeat + F X - - F Y +} if pop
}def

newpath 
220 180 moveto

.5 0 .5 setrgbcolor 

90 rotate
10 X 

stroke 

showpage
