%!PS

1 setlinejoin
1 setlinecap

/F
{
        dup 0 eq
        {10 0 rlineto}
        {1 sub 9 {dup} repeat F F - B - F + F + F E + B + F - F - F E}
        ifelse pop
}def

/B {gsave} def
/E {stroke grestore} def

/+ {25 rotate} def
/- {-25 rotate} def

.5 .5 1 setrgbcolor

200 20 moveto
90 rotate
25 F

stroke

showpage

