%!PS

1 setlinejoin
1 setlinecap

/F
{
	0 eq {10 0 rlineto} if
}def

/+ {45 rotate} def
/- {45 rotate} def

/X
{
	dup 0 ne
	{1 sub 4 {dup} repeat + F X - - F X +} if pop
}def

newpath
220 560 moveto

0 0 1 setrgbcolor

180 rotate
10 X

stroke 

showpage
