%!PS

%this program creates pretty hypotrochoids

/inch {72 mul} def

/shape
{
	/t exch def 	
	m t cos mul k t mul cos r mul add
	m t sin mul k t mul sin r mul sub
}def
/hypotrochoid
{
	/m exch def
	/k exch def
	/r exch def
	1 1 1080 
	{
		newpath 
		0 0 moveto
		shape lineto
		stroke	
	}for
}def

gsave
4 inch 8 inch translate
1 1 5 
{
	50 rotate
	dup 5 div .9 .1 setrgbcolor
	100 2 100 hypotrochoid
	
}for
grestore

gsave
1 0 1 setrgbcolor
4 inch 8 inch translate
75 3 75 hypotrochoid
grestore

gsave
4 inch 8 inch translate
1 1 3
{
        25 rotate
        dup 5 div 0 1 setrgbcolor
        50 3 100
        hypotrochoid
	
}for
grestore

gsave
4 inch 3 inch translate
1 1 7
{
	20 rotate
	dup 10 div .8 .2 setrgbcolor
	100 2 100 hypotrochoid
	
}for
grestore
showpage
