%!PS

/circxy
{
	/a exch def
	/r exch def
	a r sin mul
	a r cos mul
}def

/inch {72 mul} def

/hypotrochoid_shape
{
	/t exch def
	%/a exch def
	%/b exch def
	%/d exch def
	%/k {a b sub} def
	%/m {a b sub d div} def
	75 t cos mul 5 t mul cos 30 mul add
	75 t sin mul 5 t mul sin 30 mul sub 
	
}def

/hypotrochoid
{
	1 1 360
	{
		newpath
		0 0 moveto
		hypotrochoid_shape lineto
		fill		
	}for
}def

%2 inch 3 inch translate
%newpath
%1 1 360
%{
%	newpath
%	0 0 moveto
%	dup 360 div .5 1
%	setrgbcolor
%	100 circxy lineto
%	fill
%}for 
%closepath

3 inch 3 inch translate
1 1 5
{
	10 rotate
	dup 5 div 0 1 setrgbcolor	
	hypotrochoid
}for

2.5 inch 2.5 inch translate
1 1 10
{
	10 rotate
	dup 5 div 0 0 setrgbcolor
	hypotrochoid
}for
showpage
